^C:\USERS\JOSÉMARTINS(1141223)\DOCUMENTS\LSIS1\PROJETO\PROJETO\BASEDADOS.CPP|C:\USERS\JOSÉMARTINS(1141223)\DOCUMENTS\LSIS1\PROJETO\PROJETO\CONFIGURACAO.CPP|C:\USERS\JOSÉMARTINS(1141223)\DOCUMENTS\LSIS1\PROJETO\PROJETO\CONFIGURACAOCONTROLLER.CPP|C:\USERS\JOSÉMARTINS(1141223)\DOCUMENTS\LSIS1\PROJETO\PROJETO\CONFIGURACOES.CPP|C:\USERS\JOSÉMARTINS(1141223)\DOCUMENTS\LSIS1\PROJETO\PROJETO\EQUIPA.CPP|C:\USERS\JOSÉMARTINS(1141223)\DOCUMENTS\LSIS1\PROJETO\PROJETO\EQUIPAS.CPP|C:\USERS\JOSÉMARTINS(1141223)\DOCUMENTS\LSIS1\PROJETO\PROJETO\EQUIPASCONTROLLER.CPP|C:\USERS\JOSÉMARTINS(1141223)\DOCUMENTS\LSIS1\PROJETO\PROJETO\GENERATEDFILES\RELEASE\MOC_CONFIGURACAO.CPP|C:\USERS\JOSÉMARTINS(1141223)\DOCUMENTS\LSIS1\PROJETO\PROJETO\GENERATEDFILES\RELEASE\MOC_CONFIGURACAOCONTROLLER.CPP|C:\USERS\JOSÉMARTINS(1141223)\DOCUMENTS\LSIS1\PROJETO\PROJETO\GENERATEDFILES\RELEASE\MOC_CONFIGURACOES.CPP|C:\USERS\JOSÉMARTINS(1141223)\DOCUMENTS\LSIS1\PROJETO\PROJETO\GENERATEDFILES\RELEASE\MOC_EQUIPA.CPP|C:\USERS\JOSÉMARTINS(1141223)\DOCUMENTS\LSIS1\PROJETO\PROJETO\GENERATEDFILES\RELEASE\MOC_EQUIPAS.CPP|C:\USERS\JOSÉMARTINS(1141223)\DOCUMENTS\LSIS1\PROJETO\PROJETO\GENERATEDFILES\RELEASE\MOC_EQUIPASCONTROLLER.CPP|C:\USERS\JOSÉMARTINS(1141223)\DOCUMENTS\LSIS1\PROJETO\PROJETO\GENERATEDFILES\RELEASE\MOC_MAINWINDOW.CPP|C:\USERS\JOSÉMARTINS(1141223)\DOCUMENTS\LSIS1\PROJETO\PROJETO\GENERATEDFILES\RELEASE\MOC_PROVA.CPP|C:\USERS\JOSÉMARTINS(1141223)\DOCUMENTS\LSIS1\PROJETO\PROJETO\GENERATEDFILES\RELEASE\MOC_PROVAS.CPP|C:\USERS\JOSÉMARTINS(1141223)\DOCUMENTS\LSIS1\PROJETO\PROJETO\GENERATEDFILES\RELEASE\MOC_PROVASCONTROLLER.CPP|C:\USERS\JOSÉMARTINS(1141223)\DOCUMENTS\LSIS1\PROJETO\PROJETO\GENERATEDFILES\RELEASE\MOC_ROBOT.CPP|C:\USERS\JOSÉMARTINS(1141223)\DOCUMENTS\LSIS1\PROJETO\PROJETO\GENERATEDFILES\RELEASE\MOC_ROBOTS.CPP|C:\USERS\JOSÉMARTINS(1141223)\DOCUMENTS\LSIS1\PROJETO\PROJETO\GENERATEDFILES\RELEASE\MOC_ROBOTSCONTROLLER.CPP|C:\USERS\JOSÉMARTINS(1141223)\DOCUMENTS\LSIS1\PROJETO\PROJETO\MAIN.CPP|C:\USERS\JOSÉMARTINS(1141223)\DOCUMENTS\LSIS1\PROJETO\PROJETO\MAINWINDOW.CPP|C:\USERS\JOSÉMARTINS(1141223)\DOCUMENTS\LSIS1\PROJETO\PROJETO\PROVA.CPP|C:\USERS\JOSÉMARTINS(1141223)\DOCUMENTS\LSIS1\PROJETO\PROJETO\PROVAS.CPP|C:\USERS\JOSÉMARTINS(1141223)\DOCUMENTS\LSIS1\PROJETO\PROJETO\PROVASCONTROLLER.CPP|C:\USERS\JOSÉMARTINS(1141223)\DOCUMENTS\LSIS1\PROJETO\PROJETO\ROBOT.CPP|C:\USERS\JOSÉMARTINS(1141223)\DOCUMENTS\LSIS1\PROJETO\PROJETO\ROBOTS.CPP|C:\USERS\JOSÉMARTINS(1141223)\DOCUMENTS\LSIS1\PROJETO\PROJETO\ROBOTSCONTROLLER.CPP
C:\USERS\JOSéMARTINS(1141223)\DOCUMENTS\LSIS1\PROJETO\PROJETO\X64\RELEASE\MAIN.OBJ
C:\USERS\JOSéMARTINS(1141223)\DOCUMENTS\LSIS1\PROJETO\PROJETO\X64\RELEASE\MOC_PROVAS.OBJ
C:\USERS\JOSéMARTINS(1141223)\DOCUMENTS\LSIS1\PROJETO\PROJETO\X64\RELEASE\MOC_CONFIGURACOES.OBJ
C:\USERS\JOSéMARTINS(1141223)\DOCUMENTS\LSIS1\PROJETO\PROJETO\X64\RELEASE\EQUIPAS.OBJ
C:\USERS\JOSéMARTINS(1141223)\DOCUMENTS\LSIS1\PROJETO\PROJETO\X64\RELEASE\ROBOTS.OBJ
C:\USERS\JOSéMARTINS(1141223)\DOCUMENTS\LSIS1\PROJETO\PROJETO\X64\RELEASE\MOC_ROBOTSCONTROLLER.OBJ
C:\USERS\JOSéMARTINS(1141223)\DOCUMENTS\LSIS1\PROJETO\PROJETO\X64\RELEASE\MOC_EQUIPASCONTROLLER.OBJ
C:\USERS\JOSéMARTINS(1141223)\DOCUMENTS\LSIS1\PROJETO\PROJETO\X64\RELEASE\BASEDADOS.OBJ
C:\USERS\JOSéMARTINS(1141223)\DOCUMENTS\LSIS1\PROJETO\PROJETO\X64\RELEASE\MOC_PROVA.OBJ
C:\USERS\JOSéMARTINS(1141223)\DOCUMENTS\LSIS1\PROJETO\PROJETO\X64\RELEASE\MOC_CONFIGURACAOCONTROLLER.OBJ
C:\USERS\JOSéMARTINS(1141223)\DOCUMENTS\LSIS1\PROJETO\PROJETO\X64\RELEASE\CONFIGURACAO.OBJ
C:\USERS\JOSéMARTINS(1141223)\DOCUMENTS\LSIS1\PROJETO\PROJETO\X64\RELEASE\PROVA.OBJ
C:\USERS\JOSéMARTINS(1141223)\DOCUMENTS\LSIS1\PROJETO\PROJETO\X64\RELEASE\MOC_ROBOTS.OBJ
C:\USERS\JOSéMARTINS(1141223)\DOCUMENTS\LSIS1\PROJETO\PROJETO\X64\RELEASE\MOC_EQUIPA.OBJ
C:\USERS\JOSéMARTINS(1141223)\DOCUMENTS\LSIS1\PROJETO\PROJETO\X64\RELEASE\EQUIPA.OBJ
C:\USERS\JOSéMARTINS(1141223)\DOCUMENTS\LSIS1\PROJETO\PROJETO\X64\RELEASE\MAINWINDOW.OBJ
C:\USERS\JOSéMARTINS(1141223)\DOCUMENTS\LSIS1\PROJETO\PROJETO\X64\RELEASE\CONFIGURACAOCONTROLLER.OBJ
C:\USERS\JOSéMARTINS(1141223)\DOCUMENTS\LSIS1\PROJETO\PROJETO\X64\RELEASE\PROVAS.OBJ
C:\USERS\JOSéMARTINS(1141223)\DOCUMENTS\LSIS1\PROJETO\PROJETO\X64\RELEASE\ROBOTSCONTROLLER.OBJ
C:\USERS\JOSéMARTINS(1141223)\DOCUMENTS\LSIS1\PROJETO\PROJETO\X64\RELEASE\MOC_MAINWINDOW.OBJ
C:\USERS\JOSéMARTINS(1141223)\DOCUMENTS\LSIS1\PROJETO\PROJETO\X64\RELEASE\EQUIPASCONTROLLER.OBJ
C:\USERS\JOSéMARTINS(1141223)\DOCUMENTS\LSIS1\PROJETO\PROJETO\X64\RELEASE\ROBOT.OBJ
C:\USERS\JOSéMARTINS(1141223)\DOCUMENTS\LSIS1\PROJETO\PROJETO\X64\RELEASE\MOC_PROVASCONTROLLER.OBJ
C:\USERS\JOSéMARTINS(1141223)\DOCUMENTS\LSIS1\PROJETO\PROJETO\X64\RELEASE\MOC_CONFIGURACAO.OBJ
C:\USERS\JOSéMARTINS(1141223)\DOCUMENTS\LSIS1\PROJETO\PROJETO\X64\RELEASE\CONFIGURACOES.OBJ
C:\USERS\JOSéMARTINS(1141223)\DOCUMENTS\LSIS1\PROJETO\PROJETO\X64\RELEASE\PROVASCONTROLLER.OBJ
C:\USERS\JOSéMARTINS(1141223)\DOCUMENTS\LSIS1\PROJETO\PROJETO\X64\RELEASE\MOC_ROBOT.OBJ
C:\USERS\JOSéMARTINS(1141223)\DOCUMENTS\LSIS1\PROJETO\PROJETO\X64\RELEASE\MOC_EQUIPAS.OBJ
^C:\USERS\JOSÉMARTINS(1141223)\DOCUMENTS\LSIS1\PROJETO\PROJETO\BASEDADOS.CPP|C:\USERS\JOSÉMARTINS(1141223)\DOCUMENTS\LSIS1\PROJETO\PROJETO\GENERATEDFILES\RELEASE\MOC_MAINWINDOW.CPP|C:\USERS\JOSÉMARTINS(1141223)\DOCUMENTS\LSIS1\PROJETO\PROJETO\MAIN.CPP|C:\USERS\JOSÉMARTINS(1141223)\DOCUMENTS\LSIS1\PROJETO\PROJETO\MAINWINDOW.CPP
C:\USERS\JOSéMARTINS(1141223)\DOCUMENTS\LSIS1\PROJETO\PROJETO\X64\RELEASE\MAINWINDOW.OBJ
C:\USERS\JOSéMARTINS(1141223)\DOCUMENTS\LSIS1\PROJETO\PROJETO\X64\RELEASE\BASEDADOS.OBJ
C:\USERS\JOSéMARTINS(1141223)\DOCUMENTS\LSIS1\PROJETO\PROJETO\X64\RELEASE\MAIN.OBJ
C:\USERS\JOSéMARTINS(1141223)\DOCUMENTS\LSIS1\PROJETO\PROJETO\X64\RELEASE\MOC_MAINWINDOW.OBJ
^C:\USERS\JOSÉMARTINS(1141223)\DOCUMENTS\LSIS1\PROJETO\PROJETO\MAINWINDOW.CPP
C:\USERS\JOSéMARTINS(1141223)\DOCUMENTS\LSIS1\PROJETO\PROJETO\X64\RELEASE\MAINWINDOW.OBJ
