^..\equipa.h
C:\Users\JoséMartins(1141223)\Documents\LSIS1\Projeto\Projeto\GeneratedFiles\Debug\moc_equipa.cpp
^..\equipas.h
C:\Users\JoséMartins(1141223)\Documents\LSIS1\Projeto\Projeto\GeneratedFiles\Debug\moc_equipas.cpp
^..\equipascontroller.h
C:\Users\JoséMartins(1141223)\Documents\LSIS1\Projeto\Projeto\GeneratedFiles\Debug\moc_equipascontroller.cpp
^..\mainwindow.h
C:\Users\JoséMartins(1141223)\Documents\LSIS1\Projeto\Projeto\GeneratedFiles\Debug\moc_mainwindow.cpp
^..\prova.h
C:\Users\JoséMartins(1141223)\Documents\LSIS1\Projeto\Projeto\GeneratedFiles\Debug\moc_prova.cpp
^..\provas.h
C:\Users\JoséMartins(1141223)\Documents\LSIS1\Projeto\Projeto\GeneratedFiles\Debug\moc_provas.cpp
^..\provascontroller.h
C:\Users\JoséMartins(1141223)\Documents\LSIS1\Projeto\Projeto\GeneratedFiles\Debug\moc_provascontroller.cpp
^..\robot.h
C:\Users\JoséMartins(1141223)\Documents\LSIS1\Projeto\Projeto\GeneratedFiles\Debug\moc_robot.cpp
^..\robots.h
C:\Users\JoséMartins(1141223)\Documents\LSIS1\Projeto\Projeto\GeneratedFiles\Debug\moc_robots.cpp
^..\robotscontroller.h
C:\Users\JoséMartins(1141223)\Documents\LSIS1\Projeto\Projeto\GeneratedFiles\Debug\moc_robotscontroller.cpp
^..\mainwindow.ui
C:\Users\JoséMartins(1141223)\Documents\LSIS1\Projeto\Projeto\GeneratedFiles\ui_mainwindow.h
^robotscontroller.h
C:\Users\JoséMartins(1141223)\Documents\LSIS1\Projeto\Projeto\GeneratedFiles\Debug\moc_robotscontroller.cpp
^robots.h
C:\Users\JoséMartins(1141223)\Documents\LSIS1\Projeto\Projeto\GeneratedFiles\Debug\moc_robots.cpp
^robot.h
C:\Users\JoséMartins(1141223)\Documents\LSIS1\Projeto\Projeto\GeneratedFiles\Debug\moc_robot.cpp
^provascontroller.h
C:\Users\JoséMartins(1141223)\Documents\LSIS1\Projeto\Projeto\GeneratedFiles\Debug\moc_provascontroller.cpp
^provas.h
C:\Users\JoséMartins(1141223)\Documents\LSIS1\Projeto\Projeto\GeneratedFiles\Debug\moc_provas.cpp
^prova.h
C:\Users\JoséMartins(1141223)\Documents\LSIS1\Projeto\Projeto\GeneratedFiles\Debug\moc_prova.cpp
^mainwindow.h
C:\Users\JoséMartins(1141223)\Documents\LSIS1\Projeto\Projeto\GeneratedFiles\Debug\moc_mainwindow.cpp
^equipascontroller.h
C:\Users\JoséMartins(1141223)\Documents\LSIS1\Projeto\Projeto\GeneratedFiles\Debug\moc_equipascontroller.cpp
^equipas.h
C:\Users\JoséMartins(1141223)\Documents\LSIS1\Projeto\Projeto\GeneratedFiles\Debug\moc_equipas.cpp
^equipa.h
C:\Users\JoséMartins(1141223)\Documents\LSIS1\Projeto\Projeto\GeneratedFiles\Debug\moc_equipa.cpp
^mainwindow.ui
C:\Users\JoséMartins(1141223)\Documents\LSIS1\Projeto\Projeto\GeneratedFiles\ui_mainwindow.h
^robotscontroller.h
C:\Users\JoséMartins(1141223)\Documents\LSIS1\Projeto\Projeto\GeneratedFiles\Debug\moc_robotscontroller.cpp
^robots.h
C:\Users\JoséMartins(1141223)\Documents\LSIS1\Projeto\Projeto\GeneratedFiles\Debug\moc_robots.cpp
^robot.h
C:\Users\JoséMartins(1141223)\Documents\LSIS1\Projeto\Projeto\GeneratedFiles\Debug\moc_robot.cpp
^provascontroller.h
C:\Users\JoséMartins(1141223)\Documents\LSIS1\Projeto\Projeto\GeneratedFiles\Debug\moc_provascontroller.cpp
^provas.h
C:\Users\JoséMartins(1141223)\Documents\LSIS1\Projeto\Projeto\GeneratedFiles\Debug\moc_provas.cpp
^prova.h
C:\Users\JoséMartins(1141223)\Documents\LSIS1\Projeto\Projeto\GeneratedFiles\Debug\moc_prova.cpp
^mainwindow.h
C:\Users\JoséMartins(1141223)\Documents\LSIS1\Projeto\Projeto\GeneratedFiles\Debug\moc_mainwindow.cpp
^equipascontroller.h
C:\Users\JoséMartins(1141223)\Documents\LSIS1\Projeto\Projeto\GeneratedFiles\Debug\moc_equipascontroller.cpp
^equipas.h
C:\Users\JoséMartins(1141223)\Documents\LSIS1\Projeto\Projeto\GeneratedFiles\Debug\moc_equipas.cpp
^equipa.h
C:\Users\JoséMartins(1141223)\Documents\LSIS1\Projeto\Projeto\GeneratedFiles\Debug\moc_equipa.cpp
^robotscontroller.h
C:\Users\JoséMartins(1141223)\Documents\LSIS1\Projeto\Projeto\GeneratedFiles\Debug\moc_robotscontroller.cpp
^robots.h
C:\Users\JoséMartins(1141223)\Documents\LSIS1\Projeto\Projeto\GeneratedFiles\Debug\moc_robots.cpp
^robot.h
C:\Users\JoséMartins(1141223)\Documents\LSIS1\Projeto\Projeto\GeneratedFiles\Debug\moc_robot.cpp
^provascontroller.h
C:\Users\JoséMartins(1141223)\Documents\LSIS1\Projeto\Projeto\GeneratedFiles\Debug\moc_provascontroller.cpp
^provas.h
C:\Users\JoséMartins(1141223)\Documents\LSIS1\Projeto\Projeto\GeneratedFiles\Debug\moc_provas.cpp
^prova.h
C:\Users\JoséMartins(1141223)\Documents\LSIS1\Projeto\Projeto\GeneratedFiles\Debug\moc_prova.cpp
^mainwindow.h
C:\Users\JoséMartins(1141223)\Documents\LSIS1\Projeto\Projeto\GeneratedFiles\Debug\moc_mainwindow.cpp
^equipascontroller.h
C:\Users\JoséMartins(1141223)\Documents\LSIS1\Projeto\Projeto\GeneratedFiles\Debug\moc_equipascontroller.cpp
^equipas.h
C:\Users\JoséMartins(1141223)\Documents\LSIS1\Projeto\Projeto\GeneratedFiles\Debug\moc_equipas.cpp
^equipa.h
C:\Users\JoséMartins(1141223)\Documents\LSIS1\Projeto\Projeto\GeneratedFiles\Debug\moc_equipa.cpp
^robotscontroller.h
C:\Users\JoséMartins(1141223)\Documents\LSIS1\Projeto\Projeto\GeneratedFiles\Debug\moc_robotscontroller.cpp
^robots.h
C:\Users\JoséMartins(1141223)\Documents\LSIS1\Projeto\Projeto\GeneratedFiles\Debug\moc_robots.cpp
^robot.h
C:\Users\JoséMartins(1141223)\Documents\LSIS1\Projeto\Projeto\GeneratedFiles\Debug\moc_robot.cpp
^provascontroller.h
C:\Users\JoséMartins(1141223)\Documents\LSIS1\Projeto\Projeto\GeneratedFiles\Debug\moc_provascontroller.cpp
^provas.h
C:\Users\JoséMartins(1141223)\Documents\LSIS1\Projeto\Projeto\GeneratedFiles\Debug\moc_provas.cpp
^prova.h
C:\Users\JoséMartins(1141223)\Documents\LSIS1\Projeto\Projeto\GeneratedFiles\Debug\moc_prova.cpp
^mainwindow.h
C:\Users\JoséMartins(1141223)\Documents\LSIS1\Projeto\Projeto\GeneratedFiles\Debug\moc_mainwindow.cpp
^equipascontroller.h
C:\Users\JoséMartins(1141223)\Documents\LSIS1\Projeto\Projeto\GeneratedFiles\Debug\moc_equipascontroller.cpp
^equipas.h
C:\Users\JoséMartins(1141223)\Documents\LSIS1\Projeto\Projeto\GeneratedFiles\Debug\moc_equipas.cpp
^equipa.h
C:\Users\JoséMartins(1141223)\Documents\LSIS1\Projeto\Projeto\GeneratedFiles\Debug\moc_equipa.cpp
^robotscontroller.h
C:\Users\JoséMartins(1141223)\Documents\LSIS1\Projeto\Projeto\GeneratedFiles\Debug\moc_robotscontroller.cpp
^robots.h
C:\Users\JoséMartins(1141223)\Documents\LSIS1\Projeto\Projeto\GeneratedFiles\Debug\moc_robots.cpp
^robot.h
C:\Users\JoséMartins(1141223)\Documents\LSIS1\Projeto\Projeto\GeneratedFiles\Debug\moc_robot.cpp
^provascontroller.h
C:\Users\JoséMartins(1141223)\Documents\LSIS1\Projeto\Projeto\GeneratedFiles\Debug\moc_provascontroller.cpp
^provas.h
C:\Users\JoséMartins(1141223)\Documents\LSIS1\Projeto\Projeto\GeneratedFiles\Debug\moc_provas.cpp
^prova.h
C:\Users\JoséMartins(1141223)\Documents\LSIS1\Projeto\Projeto\GeneratedFiles\Debug\moc_prova.cpp
^mainwindow.h
C:\Users\JoséMartins(1141223)\Documents\LSIS1\Projeto\Projeto\GeneratedFiles\Debug\moc_mainwindow.cpp
^equipascontroller.h
C:\Users\JoséMartins(1141223)\Documents\LSIS1\Projeto\Projeto\GeneratedFiles\Debug\moc_equipascontroller.cpp
^equipas.h
C:\Users\JoséMartins(1141223)\Documents\LSIS1\Projeto\Projeto\GeneratedFiles\Debug\moc_equipas.cpp
^equipa.h
C:\Users\JoséMartins(1141223)\Documents\LSIS1\Projeto\Projeto\GeneratedFiles\Debug\moc_equipa.cpp
^robotscontroller.h
C:\Users\JoséMartins(1141223)\Documents\LSIS1\Projeto\Projeto\GeneratedFiles\Debug\moc_robotscontroller.cpp
^robots.h
C:\Users\JoséMartins(1141223)\Documents\LSIS1\Projeto\Projeto\GeneratedFiles\Debug\moc_robots.cpp
^robot.h
C:\Users\JoséMartins(1141223)\Documents\LSIS1\Projeto\Projeto\GeneratedFiles\Debug\moc_robot.cpp
^provascontroller.h
C:\Users\JoséMartins(1141223)\Documents\LSIS1\Projeto\Projeto\GeneratedFiles\Debug\moc_provascontroller.cpp
^provas.h
C:\Users\JoséMartins(1141223)\Documents\LSIS1\Projeto\Projeto\GeneratedFiles\Debug\moc_provas.cpp
^prova.h
C:\Users\JoséMartins(1141223)\Documents\LSIS1\Projeto\Projeto\GeneratedFiles\Debug\moc_prova.cpp
^mainwindow.h
C:\Users\JoséMartins(1141223)\Documents\LSIS1\Projeto\Projeto\GeneratedFiles\Debug\moc_mainwindow.cpp
^equipascontroller.h
C:\Users\JoséMartins(1141223)\Documents\LSIS1\Projeto\Projeto\GeneratedFiles\Debug\moc_equipascontroller.cpp
^equipas.h
C:\Users\JoséMartins(1141223)\Documents\LSIS1\Projeto\Projeto\GeneratedFiles\Debug\moc_equipas.cpp
^equipa.h
C:\Users\JoséMartins(1141223)\Documents\LSIS1\Projeto\Projeto\GeneratedFiles\Debug\moc_equipa.cpp
^robotscontroller.h
C:\Users\JoséMartins(1141223)\Documents\LSIS1\Projeto\Projeto\GeneratedFiles\Debug\moc_robotscontroller.cpp
^robots.h
C:\Users\JoséMartins(1141223)\Documents\LSIS1\Projeto\Projeto\GeneratedFiles\Debug\moc_robots.cpp
^robot.h
C:\Users\JoséMartins(1141223)\Documents\LSIS1\Projeto\Projeto\GeneratedFiles\Debug\moc_robot.cpp
^provascontroller.h
C:\Users\JoséMartins(1141223)\Documents\LSIS1\Projeto\Projeto\GeneratedFiles\Debug\moc_provascontroller.cpp
^provas.h
C:\Users\JoséMartins(1141223)\Documents\LSIS1\Projeto\Projeto\GeneratedFiles\Debug\moc_provas.cpp
^prova.h
C:\Users\JoséMartins(1141223)\Documents\LSIS1\Projeto\Projeto\GeneratedFiles\Debug\moc_prova.cpp
^mainwindow.h
C:\Users\JoséMartins(1141223)\Documents\LSIS1\Projeto\Projeto\GeneratedFiles\Debug\moc_mainwindow.cpp
^equipascontroller.h
C:\Users\JoséMartins(1141223)\Documents\LSIS1\Projeto\Projeto\GeneratedFiles\Debug\moc_equipascontroller.cpp
^equipa.h
C:\Users\JoséMartins(1141223)\Documents\LSIS1\Projeto\Projeto\GeneratedFiles\Debug\moc_equipa.cpp
^robotscontroller.h
C:\Users\JoséMartins(1141223)\Documents\LSIS1\Projeto\Projeto\GeneratedFiles\Debug\moc_robotscontroller.cpp
^robots.h
C:\Users\JoséMartins(1141223)\Documents\LSIS1\Projeto\Projeto\GeneratedFiles\Debug\moc_robots.cpp
^robot.h
C:\Users\JoséMartins(1141223)\Documents\LSIS1\Projeto\Projeto\GeneratedFiles\Debug\moc_robot.cpp
^provascontroller.h
C:\Users\JoséMartins(1141223)\Documents\LSIS1\Projeto\Projeto\GeneratedFiles\Debug\moc_provascontroller.cpp
^provas.h
C:\Users\JoséMartins(1141223)\Documents\LSIS1\Projeto\Projeto\GeneratedFiles\Debug\moc_provas.cpp
^prova.h
C:\Users\JoséMartins(1141223)\Documents\LSIS1\Projeto\Projeto\GeneratedFiles\Debug\moc_prova.cpp
^mainwindow.h
C:\Users\JoséMartins(1141223)\Documents\LSIS1\Projeto\Projeto\GeneratedFiles\Debug\moc_mainwindow.cpp
^equipascontroller.h
C:\Users\JoséMartins(1141223)\Documents\LSIS1\Projeto\Projeto\GeneratedFiles\Debug\moc_equipascontroller.cpp
^equipa.h
C:\Users\JoséMartins(1141223)\Documents\LSIS1\Projeto\Projeto\GeneratedFiles\Debug\moc_equipa.cpp
^robotscontroller.h
C:\Users\JoséMartins(1141223)\Documents\LSIS1\Projeto\Projeto\GeneratedFiles\Debug\moc_robotscontroller.cpp
^robots.h
C:\Users\JoséMartins(1141223)\Documents\LSIS1\Projeto\Projeto\GeneratedFiles\Debug\moc_robots.cpp
^robot.h
C:\Users\JoséMartins(1141223)\Documents\LSIS1\Projeto\Projeto\GeneratedFiles\Debug\moc_robot.cpp
^provascontroller.h
C:\Users\JoséMartins(1141223)\Documents\LSIS1\Projeto\Projeto\GeneratedFiles\Debug\moc_provascontroller.cpp
^provas.h
C:\Users\JoséMartins(1141223)\Documents\LSIS1\Projeto\Projeto\GeneratedFiles\Debug\moc_provas.cpp
^prova.h
C:\Users\JoséMartins(1141223)\Documents\LSIS1\Projeto\Projeto\GeneratedFiles\Debug\moc_prova.cpp
^mainwindow.h
C:\Users\JoséMartins(1141223)\Documents\LSIS1\Projeto\Projeto\GeneratedFiles\Debug\moc_mainwindow.cpp
^equipascontroller.h
C:\Users\JoséMartins(1141223)\Documents\LSIS1\Projeto\Projeto\GeneratedFiles\Debug\moc_equipascontroller.cpp
^equipa.h
C:\Users\JoséMartins(1141223)\Documents\LSIS1\Projeto\Projeto\GeneratedFiles\Debug\moc_equipa.cpp
^robotscontroller.h
C:\Users\JoséMartins(1141223)\Documents\LSIS1\Projeto\Projeto\GeneratedFiles\Debug\moc_robotscontroller.cpp
^robots.h
C:\Users\JoséMartins(1141223)\Documents\LSIS1\Projeto\Projeto\GeneratedFiles\Debug\moc_robots.cpp
^robot.h
C:\Users\JoséMartins(1141223)\Documents\LSIS1\Projeto\Projeto\GeneratedFiles\Debug\moc_robot.cpp
^provascontroller.h
C:\Users\JoséMartins(1141223)\Documents\LSIS1\Projeto\Projeto\GeneratedFiles\Debug\moc_provascontroller.cpp
^provas.h
C:\Users\JoséMartins(1141223)\Documents\LSIS1\Projeto\Projeto\GeneratedFiles\Debug\moc_provas.cpp
^prova.h
C:\Users\JoséMartins(1141223)\Documents\LSIS1\Projeto\Projeto\GeneratedFiles\Debug\moc_prova.cpp
^mainwindow.h
C:\Users\JoséMartins(1141223)\Documents\LSIS1\Projeto\Projeto\GeneratedFiles\Debug\moc_mainwindow.cpp
^equipascontroller.h
C:\Users\JoséMartins(1141223)\Documents\LSIS1\Projeto\Projeto\GeneratedFiles\Debug\moc_equipascontroller.cpp
^equipa.h
C:\Users\JoséMartins(1141223)\Documents\LSIS1\Projeto\Projeto\GeneratedFiles\Debug\moc_equipa.cpp
^robotscontroller.h
C:\Users\JoséMartins(1141223)\Documents\LSIS1\Projeto\Projeto\GeneratedFiles\Debug\moc_robotscontroller.cpp
^robots.h
C:\Users\JoséMartins(1141223)\Documents\LSIS1\Projeto\Projeto\GeneratedFiles\Debug\moc_robots.cpp
^robot.h
C:\Users\JoséMartins(1141223)\Documents\LSIS1\Projeto\Projeto\GeneratedFiles\Debug\moc_robot.cpp
^provascontroller.h
C:\Users\JoséMartins(1141223)\Documents\LSIS1\Projeto\Projeto\GeneratedFiles\Debug\moc_provascontroller.cpp
^provas.h
C:\Users\JoséMartins(1141223)\Documents\LSIS1\Projeto\Projeto\GeneratedFiles\Debug\moc_provas.cpp
^prova.h
C:\Users\JoséMartins(1141223)\Documents\LSIS1\Projeto\Projeto\GeneratedFiles\Debug\moc_prova.cpp
^mainwindow.h
C:\Users\JoséMartins(1141223)\Documents\LSIS1\Projeto\Projeto\GeneratedFiles\Debug\moc_mainwindow.cpp
^equipascontroller.h
C:\Users\JoséMartins(1141223)\Documents\LSIS1\Projeto\Projeto\GeneratedFiles\Debug\moc_equipascontroller.cpp
^equipa.h
C:\Users\JoséMartins(1141223)\Documents\LSIS1\Projeto\Projeto\GeneratedFiles\Debug\moc_equipa.cpp
^robotscontroller.h
C:\Users\JoséMartins(1141223)\Documents\LSIS1\Projeto\Projeto\GeneratedFiles\Debug\moc_robotscontroller.cpp
^robots.h
C:\Users\JoséMartins(1141223)\Documents\LSIS1\Projeto\Projeto\GeneratedFiles\Debug\moc_robots.cpp
^robot.h
C:\Users\JoséMartins(1141223)\Documents\LSIS1\Projeto\Projeto\GeneratedFiles\Debug\moc_robot.cpp
^provascontroller.h
C:\Users\JoséMartins(1141223)\Documents\LSIS1\Projeto\Projeto\GeneratedFiles\Debug\moc_provascontroller.cpp
^provas.h
C:\Users\JoséMartins(1141223)\Documents\LSIS1\Projeto\Projeto\GeneratedFiles\Debug\moc_provas.cpp
^prova.h
C:\Users\JoséMartins(1141223)\Documents\LSIS1\Projeto\Projeto\GeneratedFiles\Debug\moc_prova.cpp
^mainwindow.h
C:\Users\JoséMartins(1141223)\Documents\LSIS1\Projeto\Projeto\GeneratedFiles\Debug\moc_mainwindow.cpp
^equipascontroller.h
C:\Users\JoséMartins(1141223)\Documents\LSIS1\Projeto\Projeto\GeneratedFiles\Debug\moc_equipascontroller.cpp
^equipa.h
C:\Users\JoséMartins(1141223)\Documents\LSIS1\Projeto\Projeto\GeneratedFiles\Debug\moc_equipa.cpp
^robotscontroller.h
C:\Users\JoséMartins(1141223)\Documents\LSIS1\Projeto\Projeto\GeneratedFiles\Debug\moc_robotscontroller.cpp
^robots.h
C:\Users\JoséMartins(1141223)\Documents\LSIS1\Projeto\Projeto\GeneratedFiles\Debug\moc_robots.cpp
^robot.h
C:\Users\JoséMartins(1141223)\Documents\LSIS1\Projeto\Projeto\GeneratedFiles\Debug\moc_robot.cpp
^provascontroller.h
C:\Users\JoséMartins(1141223)\Documents\LSIS1\Projeto\Projeto\GeneratedFiles\Debug\moc_provascontroller.cpp
^provas.h
C:\Users\JoséMartins(1141223)\Documents\LSIS1\Projeto\Projeto\GeneratedFiles\Debug\moc_provas.cpp
^prova.h
C:\Users\JoséMartins(1141223)\Documents\LSIS1\Projeto\Projeto\GeneratedFiles\Debug\moc_prova.cpp
^mainwindow.h
C:\Users\JoséMartins(1141223)\Documents\LSIS1\Projeto\Projeto\GeneratedFiles\Debug\moc_mainwindow.cpp
^equipascontroller.h
C:\Users\JoséMartins(1141223)\Documents\LSIS1\Projeto\Projeto\GeneratedFiles\Debug\moc_equipascontroller.cpp
^equipa.h
C:\Users\JoséMartins(1141223)\Documents\LSIS1\Projeto\Projeto\GeneratedFiles\Debug\moc_equipa.cpp
^robotscontroller.h
C:\Users\JoséMartins(1141223)\Documents\LSIS1\Projeto\Projeto\GeneratedFiles\Debug\moc_robotscontroller.cpp
^robots.h
C:\Users\JoséMartins(1141223)\Documents\LSIS1\Projeto\Projeto\GeneratedFiles\Debug\moc_robots.cpp
^robot.h
C:\Users\JoséMartins(1141223)\Documents\LSIS1\Projeto\Projeto\GeneratedFiles\Debug\moc_robot.cpp
^provascontroller.h
C:\Users\JoséMartins(1141223)\Documents\LSIS1\Projeto\Projeto\GeneratedFiles\Debug\moc_provascontroller.cpp
^provas.h
C:\Users\JoséMartins(1141223)\Documents\LSIS1\Projeto\Projeto\GeneratedFiles\Debug\moc_provas.cpp
^prova.h
C:\Users\JoséMartins(1141223)\Documents\LSIS1\Projeto\Projeto\GeneratedFiles\Debug\moc_prova.cpp
^mainwindow.h
C:\Users\JoséMartins(1141223)\Documents\LSIS1\Projeto\Projeto\GeneratedFiles\Debug\moc_mainwindow.cpp
^equipascontroller.h
C:\Users\JoséMartins(1141223)\Documents\LSIS1\Projeto\Projeto\GeneratedFiles\Debug\moc_equipascontroller.cpp
^equipa.h
C:\Users\JoséMartins(1141223)\Documents\LSIS1\Projeto\Projeto\GeneratedFiles\Debug\moc_equipa.cpp
^robotscontroller.h
C:\Users\JoséMartins(1141223)\Documents\LSIS1\Projeto\Projeto\GeneratedFiles\Debug\moc_robotscontroller.cpp
^robots.h
C:\Users\JoséMartins(1141223)\Documents\LSIS1\Projeto\Projeto\GeneratedFiles\Debug\moc_robots.cpp
^robot.h
C:\Users\JoséMartins(1141223)\Documents\LSIS1\Projeto\Projeto\GeneratedFiles\Debug\moc_robot.cpp
^provascontroller.h
C:\Users\JoséMartins(1141223)\Documents\LSIS1\Projeto\Projeto\GeneratedFiles\Debug\moc_provascontroller.cpp
^provas.h
C:\Users\JoséMartins(1141223)\Documents\LSIS1\Projeto\Projeto\GeneratedFiles\Debug\moc_provas.cpp
^prova.h
C:\Users\JoséMartins(1141223)\Documents\LSIS1\Projeto\Projeto\GeneratedFiles\Debug\moc_prova.cpp
^mainwindow.h
C:\Users\JoséMartins(1141223)\Documents\LSIS1\Projeto\Projeto\GeneratedFiles\Debug\moc_mainwindow.cpp
^equipascontroller.h
C:\Users\JoséMartins(1141223)\Documents\LSIS1\Projeto\Projeto\GeneratedFiles\Debug\moc_equipascontroller.cpp
^equipa.h
C:\Users\JoséMartins(1141223)\Documents\LSIS1\Projeto\Projeto\GeneratedFiles\Debug\moc_equipa.cpp
^robotscontroller.h
C:\Users\JoséMartins(1141223)\Documents\LSIS1\Projeto\Projeto\GeneratedFiles\Debug\moc_robotscontroller.cpp
^robots.h
C:\Users\JoséMartins(1141223)\Documents\LSIS1\Projeto\Projeto\GeneratedFiles\Debug\moc_robots.cpp
^robot.h
C:\Users\JoséMartins(1141223)\Documents\LSIS1\Projeto\Projeto\GeneratedFiles\Debug\moc_robot.cpp
^provascontroller.h
C:\Users\JoséMartins(1141223)\Documents\LSIS1\Projeto\Projeto\GeneratedFiles\Debug\moc_provascontroller.cpp
^provas.h
C:\Users\JoséMartins(1141223)\Documents\LSIS1\Projeto\Projeto\GeneratedFiles\Debug\moc_provas.cpp
^prova.h
C:\Users\JoséMartins(1141223)\Documents\LSIS1\Projeto\Projeto\GeneratedFiles\Debug\moc_prova.cpp
^mainwindow.h
C:\Users\JoséMartins(1141223)\Documents\LSIS1\Projeto\Projeto\GeneratedFiles\Debug\moc_mainwindow.cpp
^equipascontroller.h
C:\Users\JoséMartins(1141223)\Documents\LSIS1\Projeto\Projeto\GeneratedFiles\Debug\moc_equipascontroller.cpp
^equipa.h
C:\Users\JoséMartins(1141223)\Documents\LSIS1\Projeto\Projeto\GeneratedFiles\Debug\moc_equipa.cpp
^robotscontroller.h
C:\Users\JoséMartins(1141223)\Documents\LSIS1\Projeto\Projeto\GeneratedFiles\Debug\moc_robotscontroller.cpp
^robots.h
C:\Users\JoséMartins(1141223)\Documents\LSIS1\Projeto\Projeto\GeneratedFiles\Debug\moc_robots.cpp
^robot.h
C:\Users\JoséMartins(1141223)\Documents\LSIS1\Projeto\Projeto\GeneratedFiles\Debug\moc_robot.cpp
^provascontroller.h
C:\Users\JoséMartins(1141223)\Documents\LSIS1\Projeto\Projeto\GeneratedFiles\Debug\moc_provascontroller.cpp
^provas.h
C:\Users\JoséMartins(1141223)\Documents\LSIS1\Projeto\Projeto\GeneratedFiles\Debug\moc_provas.cpp
^prova.h
C:\Users\JoséMartins(1141223)\Documents\LSIS1\Projeto\Projeto\GeneratedFiles\Debug\moc_prova.cpp
^mainwindow.h
C:\Users\JoséMartins(1141223)\Documents\LSIS1\Projeto\Projeto\GeneratedFiles\Debug\moc_mainwindow.cpp
^equipa.h
C:\Users\JoséMartins(1141223)\Documents\LSIS1\Projeto\Projeto\GeneratedFiles\Debug\moc_equipa.cpp
^robotscontroller.h
C:\Users\JoséMartins(1141223)\Documents\LSIS1\Projeto\Projeto\GeneratedFiles\Debug\moc_robotscontroller.cpp
^robots.h
C:\Users\JoséMartins(1141223)\Documents\LSIS1\Projeto\Projeto\GeneratedFiles\Debug\moc_robots.cpp
^robot.h
C:\Users\JoséMartins(1141223)\Documents\LSIS1\Projeto\Projeto\GeneratedFiles\Debug\moc_robot.cpp
^provascontroller.h
C:\Users\JoséMartins(1141223)\Documents\LSIS1\Projeto\Projeto\GeneratedFiles\Debug\moc_provascontroller.cpp
^provas.h
C:\Users\JoséMartins(1141223)\Documents\LSIS1\Projeto\Projeto\GeneratedFiles\Debug\moc_provas.cpp
^prova.h
C:\Users\JoséMartins(1141223)\Documents\LSIS1\Projeto\Projeto\GeneratedFiles\Debug\moc_prova.cpp
^mainwindow.h
C:\Users\JoséMartins(1141223)\Documents\LSIS1\Projeto\Projeto\GeneratedFiles\Debug\moc_mainwindow.cpp
^equipa.h
C:\Users\JoséMartins(1141223)\Documents\LSIS1\Projeto\Projeto\GeneratedFiles\Debug\moc_equipa.cpp
^robotscontroller.h
C:\Users\JoséMartins(1141223)\Documents\LSIS1\Projeto\Projeto\GeneratedFiles\Debug\moc_robotscontroller.cpp
^robots.h
C:\Users\JoséMartins(1141223)\Documents\LSIS1\Projeto\Projeto\GeneratedFiles\Debug\moc_robots.cpp
^robot.h
C:\Users\JoséMartins(1141223)\Documents\LSIS1\Projeto\Projeto\GeneratedFiles\Debug\moc_robot.cpp
^provascontroller.h
C:\Users\JoséMartins(1141223)\Documents\LSIS1\Projeto\Projeto\GeneratedFiles\Debug\moc_provascontroller.cpp
^provas.h
C:\Users\JoséMartins(1141223)\Documents\LSIS1\Projeto\Projeto\GeneratedFiles\Debug\moc_provas.cpp
^prova.h
C:\Users\JoséMartins(1141223)\Documents\LSIS1\Projeto\Projeto\GeneratedFiles\Debug\moc_prova.cpp
^mainwindow.h
C:\Users\JoséMartins(1141223)\Documents\LSIS1\Projeto\Projeto\GeneratedFiles\Debug\moc_mainwindow.cpp
^equipa.h
C:\Users\JoséMartins(1141223)\Documents\LSIS1\Projeto\Projeto\GeneratedFiles\Debug\moc_equipa.cpp
^robotscontroller.h
C:\Users\JoséMartins(1141223)\Documents\LSIS1\Projeto\Projeto\GeneratedFiles\Debug\moc_robotscontroller.cpp
^robots.h
C:\Users\JoséMartins(1141223)\Documents\LSIS1\Projeto\Projeto\GeneratedFiles\Debug\moc_robots.cpp
^robot.h
C:\Users\JoséMartins(1141223)\Documents\LSIS1\Projeto\Projeto\GeneratedFiles\Debug\moc_robot.cpp
^provascontroller.h
C:\Users\JoséMartins(1141223)\Documents\LSIS1\Projeto\Projeto\GeneratedFiles\Debug\moc_provascontroller.cpp
^provas.h
C:\Users\JoséMartins(1141223)\Documents\LSIS1\Projeto\Projeto\GeneratedFiles\Debug\moc_provas.cpp
^prova.h
C:\Users\JoséMartins(1141223)\Documents\LSIS1\Projeto\Projeto\GeneratedFiles\Debug\moc_prova.cpp
^mainwindow.h
C:\Users\JoséMartins(1141223)\Documents\LSIS1\Projeto\Projeto\GeneratedFiles\Debug\moc_mainwindow.cpp
^equipa.h
C:\Users\JoséMartins(1141223)\Documents\LSIS1\Projeto\Projeto\GeneratedFiles\Debug\moc_equipa.cpp
^robotscontroller.h
C:\Users\JoséMartins(1141223)\Documents\LSIS1\Projeto\Projeto\GeneratedFiles\Debug\moc_robotscontroller.cpp
^robots.h
C:\Users\JoséMartins(1141223)\Documents\LSIS1\Projeto\Projeto\GeneratedFiles\Debug\moc_robots.cpp
^robot.h
C:\Users\JoséMartins(1141223)\Documents\LSIS1\Projeto\Projeto\GeneratedFiles\Debug\moc_robot.cpp
^provascontroller.h
C:\Users\JoséMartins(1141223)\Documents\LSIS1\Projeto\Projeto\GeneratedFiles\Debug\moc_provascontroller.cpp
^provas.h
C:\Users\JoséMartins(1141223)\Documents\LSIS1\Projeto\Projeto\GeneratedFiles\Debug\moc_provas.cpp
^prova.h
C:\Users\JoséMartins(1141223)\Documents\LSIS1\Projeto\Projeto\GeneratedFiles\Debug\moc_prova.cpp
^mainwindow.h
C:\Users\JoséMartins(1141223)\Documents\LSIS1\Projeto\Projeto\GeneratedFiles\Debug\moc_mainwindow.cpp
^equipa.h
C:\Users\JoséMartins(1141223)\Documents\LSIS1\Projeto\Projeto\GeneratedFiles\Debug\moc_equipa.cpp
^robotscontroller.h
C:\Users\JoséMartins(1141223)\Documents\LSIS1\Projeto\Projeto\GeneratedFiles\Debug\moc_robotscontroller.cpp
^robots.h
C:\Users\JoséMartins(1141223)\Documents\LSIS1\Projeto\Projeto\GeneratedFiles\Debug\moc_robots.cpp
^robot.h
C:\Users\JoséMartins(1141223)\Documents\LSIS1\Projeto\Projeto\GeneratedFiles\Debug\moc_robot.cpp
^provascontroller.h
C:\Users\JoséMartins(1141223)\Documents\LSIS1\Projeto\Projeto\GeneratedFiles\Debug\moc_provascontroller.cpp
^provas.h
C:\Users\JoséMartins(1141223)\Documents\LSIS1\Projeto\Projeto\GeneratedFiles\Debug\moc_provas.cpp
^prova.h
C:\Users\JoséMartins(1141223)\Documents\LSIS1\Projeto\Projeto\GeneratedFiles\Debug\moc_prova.cpp
^mainwindow.h
C:\Users\JoséMartins(1141223)\Documents\LSIS1\Projeto\Projeto\GeneratedFiles\Debug\moc_mainwindow.cpp
^equipa.h
C:\Users\JoséMartins(1141223)\Documents\LSIS1\Projeto\Projeto\GeneratedFiles\Debug\moc_equipa.cpp
^robotscontroller.h
C:\Users\JoséMartins(1141223)\Documents\LSIS1\Projeto\Projeto\GeneratedFiles\Debug\moc_robotscontroller.cpp
^robots.h
C:\Users\JoséMartins(1141223)\Documents\LSIS1\Projeto\Projeto\GeneratedFiles\Debug\moc_robots.cpp
^robot.h
C:\Users\JoséMartins(1141223)\Documents\LSIS1\Projeto\Projeto\GeneratedFiles\Debug\moc_robot.cpp
^provascontroller.h
C:\Users\JoséMartins(1141223)\Documents\LSIS1\Projeto\Projeto\GeneratedFiles\Debug\moc_provascontroller.cpp
^provas.h
C:\Users\JoséMartins(1141223)\Documents\LSIS1\Projeto\Projeto\GeneratedFiles\Debug\moc_provas.cpp
^prova.h
C:\Users\JoséMartins(1141223)\Documents\LSIS1\Projeto\Projeto\GeneratedFiles\Debug\moc_prova.cpp
^mainwindow.h
C:\Users\JoséMartins(1141223)\Documents\LSIS1\Projeto\Projeto\GeneratedFiles\Debug\moc_mainwindow.cpp
^equipa.h
C:\Users\JoséMartins(1141223)\Documents\LSIS1\Projeto\Projeto\GeneratedFiles\Debug\moc_equipa.cpp
^robotscontroller.h
C:\Users\JoséMartins(1141223)\Documents\LSIS1\Projeto\Projeto\GeneratedFiles\Debug\moc_robotscontroller.cpp
^robots.h
C:\Users\JoséMartins(1141223)\Documents\LSIS1\Projeto\Projeto\GeneratedFiles\Debug\moc_robots.cpp
^robot.h
C:\Users\JoséMartins(1141223)\Documents\LSIS1\Projeto\Projeto\GeneratedFiles\Debug\moc_robot.cpp
^provascontroller.h
C:\Users\JoséMartins(1141223)\Documents\LSIS1\Projeto\Projeto\GeneratedFiles\Debug\moc_provascontroller.cpp
^provas.h
C:\Users\JoséMartins(1141223)\Documents\LSIS1\Projeto\Projeto\GeneratedFiles\Debug\moc_provas.cpp
^prova.h
C:\Users\JoséMartins(1141223)\Documents\LSIS1\Projeto\Projeto\GeneratedFiles\Debug\moc_prova.cpp
^mainwindow.h
C:\Users\JoséMartins(1141223)\Documents\LSIS1\Projeto\Projeto\GeneratedFiles\Debug\moc_mainwindow.cpp
^equipa.h
C:\Users\JoséMartins(1141223)\Documents\LSIS1\Projeto\Projeto\GeneratedFiles\Debug\moc_equipa.cpp
^robotscontroller.h
C:\Users\JoséMartins(1141223)\Documents\LSIS1\Projeto\Projeto\GeneratedFiles\Debug\moc_robotscontroller.cpp
^robots.h
C:\Users\JoséMartins(1141223)\Documents\LSIS1\Projeto\Projeto\GeneratedFiles\Debug\moc_robots.cpp
^robot.h
C:\Users\JoséMartins(1141223)\Documents\LSIS1\Projeto\Projeto\GeneratedFiles\Debug\moc_robot.cpp
^provascontroller.h
C:\Users\JoséMartins(1141223)\Documents\LSIS1\Projeto\Projeto\GeneratedFiles\Debug\moc_provascontroller.cpp
^provas.h
C:\Users\JoséMartins(1141223)\Documents\LSIS1\Projeto\Projeto\GeneratedFiles\Debug\moc_provas.cpp
^prova.h
C:\Users\JoséMartins(1141223)\Documents\LSIS1\Projeto\Projeto\GeneratedFiles\Debug\moc_prova.cpp
^mainwindow.h
C:\Users\JoséMartins(1141223)\Documents\LSIS1\Projeto\Projeto\GeneratedFiles\Debug\moc_mainwindow.cpp
^equipa.h
C:\Users\JoséMartins(1141223)\Documents\LSIS1\Projeto\Projeto\GeneratedFiles\Debug\moc_equipa.cpp
^robotscontroller.h
C:\Users\JoséMartins(1141223)\Documents\LSIS1\Projeto\Projeto\GeneratedFiles\Debug\moc_robotscontroller.cpp
^robots.h
C:\Users\JoséMartins(1141223)\Documents\LSIS1\Projeto\Projeto\GeneratedFiles\Debug\moc_robots.cpp
^robot.h
C:\Users\JoséMartins(1141223)\Documents\LSIS1\Projeto\Projeto\GeneratedFiles\Debug\moc_robot.cpp
^provascontroller.h
C:\Users\JoséMartins(1141223)\Documents\LSIS1\Projeto\Projeto\GeneratedFiles\Debug\moc_provascontroller.cpp
^provas.h
C:\Users\JoséMartins(1141223)\Documents\LSIS1\Projeto\Projeto\GeneratedFiles\Debug\moc_provas.cpp
^prova.h
C:\Users\JoséMartins(1141223)\Documents\LSIS1\Projeto\Projeto\GeneratedFiles\Debug\moc_prova.cpp
^mainwindow.h
C:\Users\JoséMartins(1141223)\Documents\LSIS1\Projeto\Projeto\GeneratedFiles\Debug\moc_mainwindow.cpp
^equipascontroller.h
C:\Users\JoséMartins(1141223)\Documents\LSIS1\Projeto\Projeto\GeneratedFiles\Debug\moc_equipascontroller.cpp
^equipa.h
C:\Users\JoséMartins(1141223)\Documents\LSIS1\Projeto\Projeto\GeneratedFiles\Debug\moc_equipa.cpp
^robotscontroller.h
C:\Users\JoséMartins(1141223)\Documents\LSIS1\Projeto\Projeto\GeneratedFiles\Debug\moc_robotscontroller.cpp
^robots.h
C:\Users\JoséMartins(1141223)\Documents\LSIS1\Projeto\Projeto\GeneratedFiles\Debug\moc_robots.cpp
^robot.h
C:\Users\JoséMartins(1141223)\Documents\LSIS1\Projeto\Projeto\GeneratedFiles\Debug\moc_robot.cpp
^provascontroller.h
C:\Users\JoséMartins(1141223)\Documents\LSIS1\Projeto\Projeto\GeneratedFiles\Debug\moc_provascontroller.cpp
^provas.h
C:\Users\JoséMartins(1141223)\Documents\LSIS1\Projeto\Projeto\GeneratedFiles\Debug\moc_provas.cpp
^prova.h
C:\Users\JoséMartins(1141223)\Documents\LSIS1\Projeto\Projeto\GeneratedFiles\Debug\moc_prova.cpp
^mainwindow.h
C:\Users\JoséMartins(1141223)\Documents\LSIS1\Projeto\Projeto\GeneratedFiles\Debug\moc_mainwindow.cpp
^equipascontroller.h
C:\Users\JoséMartins(1141223)\Documents\LSIS1\Projeto\Projeto\GeneratedFiles\Debug\moc_equipascontroller.cpp
^equipa.h
C:\Users\JoséMartins(1141223)\Documents\LSIS1\Projeto\Projeto\GeneratedFiles\Debug\moc_equipa.cpp
^robotscontroller.h
C:\Users\JoséMartins(1141223)\Documents\LSIS1\Projeto\Projeto\GeneratedFiles\Debug\moc_robotscontroller.cpp
^robots.h
C:\Users\JoséMartins(1141223)\Documents\LSIS1\Projeto\Projeto\GeneratedFiles\Debug\moc_robots.cpp
^robot.h
C:\Users\JoséMartins(1141223)\Documents\LSIS1\Projeto\Projeto\GeneratedFiles\Debug\moc_robot.cpp
^provascontroller.h
C:\Users\JoséMartins(1141223)\Documents\LSIS1\Projeto\Projeto\GeneratedFiles\Debug\moc_provascontroller.cpp
^provas.h
C:\Users\JoséMartins(1141223)\Documents\LSIS1\Projeto\Projeto\GeneratedFiles\Debug\moc_provas.cpp
^prova.h
C:\Users\JoséMartins(1141223)\Documents\LSIS1\Projeto\Projeto\GeneratedFiles\Debug\moc_prova.cpp
^mainwindow.h
C:\Users\JoséMartins(1141223)\Documents\LSIS1\Projeto\Projeto\GeneratedFiles\Debug\moc_mainwindow.cpp
^equipascontroller.h
C:\Users\JoséMartins(1141223)\Documents\LSIS1\Projeto\Projeto\GeneratedFiles\Debug\moc_equipascontroller.cpp
^equipa.h
C:\Users\JoséMartins(1141223)\Documents\LSIS1\Projeto\Projeto\GeneratedFiles\Debug\moc_equipa.cpp
^robotscontroller.h
C:\Users\JoséMartins(1141223)\Documents\LSIS1\Projeto\Projeto\GeneratedFiles\Debug\moc_robotscontroller.cpp
^robots.h
C:\Users\JoséMartins(1141223)\Documents\LSIS1\Projeto\Projeto\GeneratedFiles\Debug\moc_robots.cpp
^robot.h
C:\Users\JoséMartins(1141223)\Documents\LSIS1\Projeto\Projeto\GeneratedFiles\Debug\moc_robot.cpp
^provascontroller.h
C:\Users\JoséMartins(1141223)\Documents\LSIS1\Projeto\Projeto\GeneratedFiles\Debug\moc_provascontroller.cpp
^provas.h
C:\Users\JoséMartins(1141223)\Documents\LSIS1\Projeto\Projeto\GeneratedFiles\Debug\moc_provas.cpp
^prova.h
C:\Users\JoséMartins(1141223)\Documents\LSIS1\Projeto\Projeto\GeneratedFiles\Debug\moc_prova.cpp
^mainwindow.h
C:\Users\JoséMartins(1141223)\Documents\LSIS1\Projeto\Projeto\GeneratedFiles\Debug\moc_mainwindow.cpp
^equipa.h
C:\Users\JoséMartins(1141223)\Documents\LSIS1\Projeto\Projeto\GeneratedFiles\Debug\moc_equipa.cpp
^robotscontroller.h
C:\Users\JoséMartins(1141223)\Documents\LSIS1\Projeto\Projeto\GeneratedFiles\Debug\moc_robotscontroller.cpp
^robots.h
C:\Users\JoséMartins(1141223)\Documents\LSIS1\Projeto\Projeto\GeneratedFiles\Debug\moc_robots.cpp
^robot.h
C:\Users\JoséMartins(1141223)\Documents\LSIS1\Projeto\Projeto\GeneratedFiles\Debug\moc_robot.cpp
^provas.h
C:\Users\JoséMartins(1141223)\Documents\LSIS1\Projeto\Projeto\GeneratedFiles\Debug\moc_provas.cpp
^prova.h
C:\Users\JoséMartins(1141223)\Documents\LSIS1\Projeto\Projeto\GeneratedFiles\Debug\moc_prova.cpp
^equipa.h
C:\Users\JoséMartins(1141223)\Documents\LSIS1\Projeto\Projeto\GeneratedFiles\Debug\moc_equipa.cpp
^robotscontroller.h
C:\Users\JoséMartins(1141223)\Documents\LSIS1\Projeto\Projeto\GeneratedFiles\Debug\moc_robotscontroller.cpp
^robots.h
C:\Users\JoséMartins(1141223)\Documents\LSIS1\Projeto\Projeto\GeneratedFiles\Debug\moc_robots.cpp
^robot.h
C:\Users\JoséMartins(1141223)\Documents\LSIS1\Projeto\Projeto\GeneratedFiles\Debug\moc_robot.cpp
^provas.h
C:\Users\JoséMartins(1141223)\Documents\LSIS1\Projeto\Projeto\GeneratedFiles\Debug\moc_provas.cpp
^prova.h
C:\Users\JoséMartins(1141223)\Documents\LSIS1\Projeto\Projeto\GeneratedFiles\Debug\moc_prova.cpp
^robotscontroller.h
C:\Users\JoséMartins(1141223)\Documents\LSIS1\Projeto\Projeto\GeneratedFiles\Debug\moc_robotscontroller.cpp
^robots.h
C:\Users\JoséMartins(1141223)\Documents\LSIS1\Projeto\Projeto\GeneratedFiles\Debug\moc_robots.cpp
^robot.h
C:\Users\JoséMartins(1141223)\Documents\LSIS1\Projeto\Projeto\GeneratedFiles\Debug\moc_robot.cpp
^robot.h
C:\Users\JoséMartins(1141223)\Documents\LSIS1\Projeto\Projeto\GeneratedFiles\Debug\moc_robot.cpp
^prova.h
C:\Users\JoséMartins(1141223)\Documents\LSIS1\Projeto\Projeto\GeneratedFiles\Debug\moc_prova.cpp
^mainwindow.h
C:\Users\JoséMartins(1141223)\Documents\LSIS1\Projeto\Projeto\GeneratedFiles\Debug\moc_mainwindow.cpp
^equipa.h
C:\Users\JoséMartins(1141223)\Documents\LSIS1\Projeto\Projeto\GeneratedFiles\Debug\moc_equipa.cpp
^prova.h
C:\Users\JoséMartins(1141223)\Documents\LSIS1\Projeto\Projeto\GeneratedFiles\Debug\moc_prova.cpp
^robotscontroller.h
C:\Users\JoséMartins(1141223)\Documents\LSIS1\Projeto\Projeto\GeneratedFiles\Debug\moc_robotscontroller.cpp
^robots.h
C:\Users\JoséMartins(1141223)\Documents\LSIS1\Projeto\Projeto\GeneratedFiles\Debug\moc_robots.cpp
^robot.h
C:\Users\JoséMartins(1141223)\Documents\LSIS1\Projeto\Projeto\GeneratedFiles\Debug\moc_robot.cpp
^provascontroller.h
C:\Users\JoséMartins(1141223)\Documents\LSIS1\Projeto\Projeto\GeneratedFiles\Debug\moc_provascontroller.cpp
^provas.h
C:\Users\JoséMartins(1141223)\Documents\LSIS1\Projeto\Projeto\GeneratedFiles\Debug\moc_provas.cpp
^prova.h
C:\Users\JoséMartins(1141223)\Documents\LSIS1\Projeto\Projeto\GeneratedFiles\Debug\moc_prova.cpp
^mainwindow.h
C:\Users\JoséMartins(1141223)\Documents\LSIS1\Projeto\Projeto\GeneratedFiles\Debug\moc_mainwindow.cpp
^equipascontroller.h
C:\Users\JoséMartins(1141223)\Documents\LSIS1\Projeto\Projeto\GeneratedFiles\Debug\moc_equipascontroller.cpp
^equipas.h
C:\Users\JoséMartins(1141223)\Documents\LSIS1\Projeto\Projeto\GeneratedFiles\Debug\moc_equipas.cpp
^equipa.h
C:\Users\JoséMartins(1141223)\Documents\LSIS1\Projeto\Projeto\GeneratedFiles\Debug\moc_equipa.cpp
^robotscontroller.h
C:\Users\JoséMartins(1141223)\Documents\LSIS1\Projeto\Projeto\GeneratedFiles\Debug\moc_robotscontroller.cpp
^robots.h
C:\Users\JoséMartins(1141223)\Documents\LSIS1\Projeto\Projeto\GeneratedFiles\Debug\moc_robots.cpp
^robot.h
C:\Users\JoséMartins(1141223)\Documents\LSIS1\Projeto\Projeto\GeneratedFiles\Debug\moc_robot.cpp
^provascontroller.h
C:\Users\JoséMartins(1141223)\Documents\LSIS1\Projeto\Projeto\GeneratedFiles\Debug\moc_provascontroller.cpp
^provas.h
C:\Users\JoséMartins(1141223)\Documents\LSIS1\Projeto\Projeto\GeneratedFiles\Debug\moc_provas.cpp
^prova.h
C:\Users\JoséMartins(1141223)\Documents\LSIS1\Projeto\Projeto\GeneratedFiles\Debug\moc_prova.cpp
^mainwindow.h
C:\Users\JoséMartins(1141223)\Documents\LSIS1\Projeto\Projeto\GeneratedFiles\Debug\moc_mainwindow.cpp
^equipascontroller.h
C:\Users\JoséMartins(1141223)\Documents\LSIS1\Projeto\Projeto\GeneratedFiles\Debug\moc_equipascontroller.cpp
^equipas.h
C:\Users\JoséMartins(1141223)\Documents\LSIS1\Projeto\Projeto\GeneratedFiles\Debug\moc_equipas.cpp
^equipa.h
C:\Users\JoséMartins(1141223)\Documents\LSIS1\Projeto\Projeto\GeneratedFiles\Debug\moc_equipa.cpp
^mainwindow.ui
C:\Users\JoséMartins(1141223)\Documents\LSIS1\Projeto\Projeto\GeneratedFiles\ui_mainwindow.h
^robotscontroller.h
C:\Users\JoséMartins(1141223)\Documents\LSIS1\Projeto\Projeto\GeneratedFiles\Debug\moc_robotscontroller.cpp
^robots.h
C:\Users\JoséMartins(1141223)\Documents\LSIS1\Projeto\Projeto\GeneratedFiles\Debug\moc_robots.cpp
^robot.h
C:\Users\JoséMartins(1141223)\Documents\LSIS1\Projeto\Projeto\GeneratedFiles\Debug\moc_robot.cpp
^provascontroller.h
C:\Users\JoséMartins(1141223)\Documents\LSIS1\Projeto\Projeto\GeneratedFiles\Debug\moc_provascontroller.cpp
^provas.h
C:\Users\JoséMartins(1141223)\Documents\LSIS1\Projeto\Projeto\GeneratedFiles\Debug\moc_provas.cpp
^prova.h
C:\Users\JoséMartins(1141223)\Documents\LSIS1\Projeto\Projeto\GeneratedFiles\Debug\moc_prova.cpp
^mainwindow.h
C:\Users\JoséMartins(1141223)\Documents\LSIS1\Projeto\Projeto\GeneratedFiles\Debug\moc_mainwindow.cpp
^equipascontroller.h
C:\Users\JoséMartins(1141223)\Documents\LSIS1\Projeto\Projeto\GeneratedFiles\Debug\moc_equipascontroller.cpp
^equipas.h
C:\Users\JoséMartins(1141223)\Documents\LSIS1\Projeto\Projeto\GeneratedFiles\Debug\moc_equipas.cpp
^equipa.h
C:\Users\JoséMartins(1141223)\Documents\LSIS1\Projeto\Projeto\GeneratedFiles\Debug\moc_equipa.cpp
^mainwindow.ui
C:\Users\JoséMartins(1141223)\Documents\LSIS1\Projeto\Projeto\GeneratedFiles\ui_mainwindow.h
^robotscontroller.h
C:\Users\JoséMartins(1141223)\Documents\LSIS1\Projeto\Projeto\GeneratedFiles\Debug\moc_robotscontroller.cpp
^robots.h
C:\Users\JoséMartins(1141223)\Documents\LSIS1\Projeto\Projeto\GeneratedFiles\Debug\moc_robots.cpp
^robot.h
C:\Users\JoséMartins(1141223)\Documents\LSIS1\Projeto\Projeto\GeneratedFiles\Debug\moc_robot.cpp
^provascontroller.h
C:\Users\JoséMartins(1141223)\Documents\LSIS1\Projeto\Projeto\GeneratedFiles\Debug\moc_provascontroller.cpp
^provas.h
C:\Users\JoséMartins(1141223)\Documents\LSIS1\Projeto\Projeto\GeneratedFiles\Debug\moc_provas.cpp
^prova.h
C:\Users\JoséMartins(1141223)\Documents\LSIS1\Projeto\Projeto\GeneratedFiles\Debug\moc_prova.cpp
^equipascontroller.h
C:\Users\JoséMartins(1141223)\Documents\LSIS1\Projeto\Projeto\GeneratedFiles\Debug\moc_equipascontroller.cpp
^equipas.h
C:\Users\JoséMartins(1141223)\Documents\LSIS1\Projeto\Projeto\GeneratedFiles\Debug\moc_equipas.cpp
^equipa.h
C:\Users\JoséMartins(1141223)\Documents\LSIS1\Projeto\Projeto\GeneratedFiles\Debug\moc_equipa.cpp
^mainwindow.ui
C:\Users\JoséMartins(1141223)\Documents\LSIS1\Projeto\Projeto\GeneratedFiles\ui_mainwindow.h
^robotscontroller.h
C:\Users\JoséMartins(1141223)\Documents\LSIS1\Projeto\Projeto\GeneratedFiles\Debug\moc_robotscontroller.cpp
^robots.h
C:\Users\JoséMartins(1141223)\Documents\LSIS1\Projeto\Projeto\GeneratedFiles\Debug\moc_robots.cpp
^robot.h
C:\Users\JoséMartins(1141223)\Documents\LSIS1\Projeto\Projeto\GeneratedFiles\Debug\moc_robot.cpp
^provascontroller.h
C:\Users\JoséMartins(1141223)\Documents\LSIS1\Projeto\Projeto\GeneratedFiles\Debug\moc_provascontroller.cpp
^provas.h
C:\Users\JoséMartins(1141223)\Documents\LSIS1\Projeto\Projeto\GeneratedFiles\Debug\moc_provas.cpp
^prova.h
C:\Users\JoséMartins(1141223)\Documents\LSIS1\Projeto\Projeto\GeneratedFiles\Debug\moc_prova.cpp
^equipascontroller.h
C:\Users\JoséMartins(1141223)\Documents\LSIS1\Projeto\Projeto\GeneratedFiles\Debug\moc_equipascontroller.cpp
^equipas.h
C:\Users\JoséMartins(1141223)\Documents\LSIS1\Projeto\Projeto\GeneratedFiles\Debug\moc_equipas.cpp
^equipa.h
C:\Users\JoséMartins(1141223)\Documents\LSIS1\Projeto\Projeto\GeneratedFiles\Debug\moc_equipa.cpp
^mainwindow.ui
C:\Users\JoséMartins(1141223)\Documents\LSIS1\Projeto\Projeto\GeneratedFiles\ui_mainwindow.h
^robotscontroller.h
C:\Users\JoséMartins(1141223)\Documents\LSIS1\Projeto\Projeto\GeneratedFiles\Debug\moc_robotscontroller.cpp
^robots.h
C:\Users\JoséMartins(1141223)\Documents\LSIS1\Projeto\Projeto\GeneratedFiles\Debug\moc_robots.cpp
^robot.h
C:\Users\JoséMartins(1141223)\Documents\LSIS1\Projeto\Projeto\GeneratedFiles\Debug\moc_robot.cpp
^provascontroller.h
C:\Users\JoséMartins(1141223)\Documents\LSIS1\Projeto\Projeto\GeneratedFiles\Debug\moc_provascontroller.cpp
^provas.h
C:\Users\JoséMartins(1141223)\Documents\LSIS1\Projeto\Projeto\GeneratedFiles\Debug\moc_provas.cpp
^prova.h
C:\Users\JoséMartins(1141223)\Documents\LSIS1\Projeto\Projeto\GeneratedFiles\Debug\moc_prova.cpp
^equipascontroller.h
C:\Users\JoséMartins(1141223)\Documents\LSIS1\Projeto\Projeto\GeneratedFiles\Debug\moc_equipascontroller.cpp
^equipas.h
C:\Users\JoséMartins(1141223)\Documents\LSIS1\Projeto\Projeto\GeneratedFiles\Debug\moc_equipas.cpp
^equipa.h
C:\Users\JoséMartins(1141223)\Documents\LSIS1\Projeto\Projeto\GeneratedFiles\Debug\moc_equipa.cpp
^mainwindow.ui
C:\Users\JoséMartins(1141223)\Documents\LSIS1\Projeto\Projeto\GeneratedFiles\ui_mainwindow.h
^robotscontroller.h
C:\Users\JoséMartins(1141223)\Documents\LSIS1\Projeto\Projeto\GeneratedFiles\Debug\moc_robotscontroller.cpp
^robots.h
C:\Users\JoséMartins(1141223)\Documents\LSIS1\Projeto\Projeto\GeneratedFiles\Debug\moc_robots.cpp
^robot.h
C:\Users\JoséMartins(1141223)\Documents\LSIS1\Projeto\Projeto\GeneratedFiles\Debug\moc_robot.cpp
^provascontroller.h
C:\Users\JoséMartins(1141223)\Documents\LSIS1\Projeto\Projeto\GeneratedFiles\Debug\moc_provascontroller.cpp
^provas.h
C:\Users\JoséMartins(1141223)\Documents\LSIS1\Projeto\Projeto\GeneratedFiles\Debug\moc_provas.cpp
^prova.h
C:\Users\JoséMartins(1141223)\Documents\LSIS1\Projeto\Projeto\GeneratedFiles\Debug\moc_prova.cpp
^equipascontroller.h
C:\Users\JoséMartins(1141223)\Documents\LSIS1\Projeto\Projeto\GeneratedFiles\Debug\moc_equipascontroller.cpp
^equipas.h
C:\Users\JoséMartins(1141223)\Documents\LSIS1\Projeto\Projeto\GeneratedFiles\Debug\moc_equipas.cpp
^equipa.h
C:\Users\JoséMartins(1141223)\Documents\LSIS1\Projeto\Projeto\GeneratedFiles\Debug\moc_equipa.cpp
^mainwindow.ui
C:\Users\JoséMartins(1141223)\Documents\LSIS1\Projeto\Projeto\GeneratedFiles\ui_mainwindow.h
^robotscontroller.h
C:\Users\JoséMartins(1141223)\Documents\LSIS1\Projeto\Projeto\GeneratedFiles\Debug\moc_robotscontroller.cpp
^robots.h
C:\Users\JoséMartins(1141223)\Documents\LSIS1\Projeto\Projeto\GeneratedFiles\Debug\moc_robots.cpp
^robot.h
C:\Users\JoséMartins(1141223)\Documents\LSIS1\Projeto\Projeto\GeneratedFiles\Debug\moc_robot.cpp
^provascontroller.h
C:\Users\JoséMartins(1141223)\Documents\LSIS1\Projeto\Projeto\GeneratedFiles\Debug\moc_provascontroller.cpp
^provas.h
C:\Users\JoséMartins(1141223)\Documents\LSIS1\Projeto\Projeto\GeneratedFiles\Debug\moc_provas.cpp
^prova.h
C:\Users\JoséMartins(1141223)\Documents\LSIS1\Projeto\Projeto\GeneratedFiles\Debug\moc_prova.cpp
^mainwindow.h
C:\Users\JoséMartins(1141223)\Documents\LSIS1\Projeto\Projeto\GeneratedFiles\Debug\moc_mainwindow.cpp
^equipascontroller.h
C:\Users\JoséMartins(1141223)\Documents\LSIS1\Projeto\Projeto\GeneratedFiles\Debug\moc_equipascontroller.cpp
^equipas.h
C:\Users\JoséMartins(1141223)\Documents\LSIS1\Projeto\Projeto\GeneratedFiles\Debug\moc_equipas.cpp
^equipa.h
C:\Users\JoséMartins(1141223)\Documents\LSIS1\Projeto\Projeto\GeneratedFiles\Debug\moc_equipa.cpp
